"anps_id","state_id","placename","description","lga_name","state_code","parish","TLCM_Latitude","TLCM_Longitude","google_maps_link"
"92630","N46","Mount Pitt","Location: 167° 56' 15, -29° 0' 50. Volcanic mountain 316m high on Norfolk Island [Natgaz feature code PT is incorrect]",\N,"NFK",\N,"-29.01388888888889","167.9375","https://www.google.com/maps/@-29.01388888888889,167.9375,15z"
"92703","N40","Anson Bay","Location: 167° 55' 16, -29° 0' 34",\N,"NFK",\N,"-29.009444444444444","167.9211111111111","https://www.google.com/maps/@-29.009444444444444,167.9211111111111,15z"
"92705","N51","Duncombe Bay","Location: 167° 55' 46, -28° 59' 51",\N,"NFK",\N,"-28.997500000000002","167.92944444444444","https://www.google.com/maps/@-28.997500000000002,167.92944444444444,15z"
"92706",\N,"Phillips Isle","variant of Phillip Island, location: 167° 57' 4, -29° 7' 13",\N,"NFK",\N,"-29.12027777777778","167.9511111111111","https://www.google.com/maps/@-29.12027777777778,167.9511111111111,15z"
"188826","N64","Norfolk Island","Location: 167° 56' 57, -29° 1' 57\
Gazetteer gives NFK as State name; GA code: 31909",\N,"NFK",\N,"-29.0325","167.94916666666668","https://www.google.com/maps/@-29.0325,167.94916666666668,15z"
"298558","N1","Emily Bay","Location: 167° 57' 49, -29° 3' 33",\N,"NFK",\N,"-29.059166666666666","167.9636111111111","https://www.google.com/maps/@-29.059166666666666,167.9636111111111,15z"
"298559","N2","Cemetery Bay","Location: 167° 58' 14, -29° 3' 28",\N,"NFK",\N,"-29.05777777777778","167.97055555555556","https://www.google.com/maps/@-29.05777777777778,167.97055555555556,15z"
"298560","N3","Ball Bay","Location: 167° 59' 13, -29° 2' 51",\N,"NFK",\N,"-29.047500000000003","167.98694444444442","https://www.google.com/maps/@-29.047500000000003,167.98694444444442,15z"
"298561","N4","Slaughter Bay","Location: 167° 57' 23, -29° 3' 30",\N,"NFK",\N,"-29.058333333333334","167.95638888888888","https://www.google.com/maps/@-29.058333333333334,167.95638888888888,15z"
"298562","N5","Creswell Bay","Location: 167° 56' 40, -29° 3' 25",\N,"NFK",\N,"-29.056944444444444","167.94444444444446","https://www.google.com/maps/@-29.056944444444444,167.94444444444446,15z"
"298563","N6","Sydney Bay","Location: 167° 57' 0, -29° 3' 49",\N,"NFK",\N,"-29.06361111111111","167.95","https://www.google.com/maps/@-29.06361111111111,167.95,15z"
"298564","N7","Kingston Jetty","Location: 167° 57' 20, -29° 3' 21",\N,"NFK",\N,"-29.055833333333332","167.95555555555555","https://www.google.com/maps/@-29.055833333333332,167.95555555555555,15z"
"298565","N8","Kingston Common Reserve","Location: 167° 57' 19, -29° 3' 16",\N,"NFK",\N,"-29.054444444444446","167.95527777777778","https://www.google.com/maps/@-29.054444444444446,167.95527777777778,15z"
"298566","N9","Point Hunter Reserve","Location: 167° 58' 2, -29° 3' 28",\N,"NFK",\N,"-29.05777777777778","167.96722222222223","https://www.google.com/maps/@-29.05777777777778,167.96722222222223,15z"
"298567","N12","Bloody Bridge","Location: 167° 58' 17, -29° 3' 17",\N,"NFK",\N,"-29.054722222222225","167.9713888888889","https://www.google.com/maps/@-29.054722222222225,167.9713888888889,15z"
"298568","N14","Arthurs Vale","Location: 167° 57' 10, -29° 2' 56",\N,"NFK",\N,"-29.04888888888889","167.95277777777775","https://www.google.com/maps/@-29.04888888888889,167.95277777777775,15z"
"298569","N15","Watermill Dam","Location: 167° 57' 12, -29° 2' 51",\N,"NFK",\N,"-29.047500000000003","167.95333333333332","https://www.google.com/maps/@-29.047500000000003,167.95333333333332,15z"
"298570","N16","Ball Bay Reserve","Location: 167° 58' 53, -29° 2' 40",\N,"NFK",\N,"-29.044444444444448","167.9813888888889","https://www.google.com/maps/@-29.044444444444448,167.9813888888889,15z"
"298571","N17","Bucks Point Reserve","Location: 167° 59' 11, -29° 2' 36",\N,"NFK",\N,"-29.043333333333337","167.98638888888888","https://www.google.com/maps/@-29.043333333333337,167.98638888888888,15z"
"298572","N18","Steels Point","Location: 167° 59' 51, -29° 1' 33",\N,"NFK",\N,"-29.02583333333333","167.99749999999997","https://www.google.com/maps/@-29.02583333333333,167.99749999999997,15z"
"298573","N19","Two Chimneys Reserve","Location: 167° 59' 41, -29° 2' 17",\N,"NFK",\N,"-29.03805555555556","167.9947222222222","https://www.google.com/maps/@-29.03805555555556,167.9947222222222,15z"
"298574","N20","Point Blackbourne","Location: 167° 59' 44, -29° 2' 38",\N,"NFK",\N,"-29.04388888888889","167.99555555555554","https://www.google.com/maps/@-29.04388888888889,167.99555555555554,15z"
"298575","N22","Middlegate","Location: 167° 57' 57, -29° 2' 18",\N,"NFK",\N,"-29.038333333333334","167.96583333333334","https://www.google.com/maps/@-29.038333333333334,167.96583333333334,15z"
"298576","N23","Burnt Pine","Location: 167° 57' 13, -29° 1' 55",\N,"NFK",\N,"-29.031944444444445","167.9536111111111","https://www.google.com/maps/@-29.031944444444445,167.9536111111111,15z"
"298577","N24","Norfolk Island International","Location: 167° 56' 34, -29° 1' 59",\N,"NFK",\N,"-29.033055555555556","167.9427777777778","https://www.google.com/maps/@-29.033055555555556,167.9427777777778,15z"
"298578","N25","Botanic Garden","Location: 167° 56' 25, -29° 1' 29",\N,"NFK",\N,"-29.02472222222222","167.9402777777778","https://www.google.com/maps/@-29.02472222222222,167.9402777777778,15z"
"298579","N28","St Barnabas Chapel","Location: 167° 55' 42, -29° 1' 55",\N,"NFK",\N,"-29.031944444444445","167.9283333333333","https://www.google.com/maps/@-29.031944444444445,167.9283333333333,15z"
"298580","N29","Headstone Reserve","Location: 167° 55' 20, -29° 2' 26",\N,"NFK",\N,"-29.040555555555557","167.92222222222222","https://www.google.com/maps/@-29.040555555555557,167.92222222222222,15z"
"298581","N30","Headstone Point","Location: 167° 55' 17, -29° 2' 33",\N,"NFK",\N,"-29.0425","167.92138888888888","https://www.google.com/maps/@-29.0425,167.92138888888888,15z"
"298582","N31","Rocky Point","Location: 167° 55' 16, -29° 3' 0",\N,"NFK",\N,"-29.05","167.9211111111111","https://www.google.com/maps/@-29.05,167.9211111111111,15z"
"298583","N32","Rocky Point Reserve","Location: 167° 55' 20, -29° 2' 55",\N,"NFK",\N,"-29.048611111111114","167.92222222222222","https://www.google.com/maps/@-29.048611111111114,167.92222222222222,15z"
"298584","N33","Point Ross","Location: 167° 56' 14, -29° 3' 38",\N,"NFK",\N,"-29.060555555555556","167.93722222222223","https://www.google.com/maps/@-29.060555555555556,167.93722222222223,15z"
"298585","N34","Point Ross Reserve","Location: 167° 56' 14, -29° 3' 35",\N,"NFK",\N,"-29.059722222222224","167.93722222222223","https://www.google.com/maps/@-29.059722222222224,167.93722222222223,15z"
"298586","N35","Bumbora Reserve","Location: 167° 56' 35, -29° 3' 17",\N,"NFK",\N,"-29.054722222222225","167.94305555555556","https://www.google.com/maps/@-29.054722222222225,167.94305555555556,15z"
"298587","N36","Longridge","Location: 167° 56' 31, -29° 2' 53",\N,"NFK",\N,"-29.048055555555557","167.94194444444446","https://www.google.com/maps/@-29.048055555555557,167.94194444444446,15z"
"298588","N37","Puppys Point","Location: 167° 55' 11, -29° 1' 19",\N,"NFK",\N,"-29.021944444444443","167.91972222222222","https://www.google.com/maps/@-29.021944444444443,167.91972222222222,15z"
"298589","N38","Flat Rock","Location: 167° 55' 18, -29° 1' 11",\N,"NFK",\N,"-29.01972222222222","167.92166666666665","https://www.google.com/maps/@-29.01972222222222,167.92166666666665,15z"
"298590","N39","Jacobs Rock","Location: 167° 55' 14, -29° 1' 5",\N,"NFK",\N,"-29.018055555555556","167.92055555555555","https://www.google.com/maps/@-29.018055555555556,167.92055555555555,15z"
"298592","N41","Anson Point","Location: 167° 55' 0, -29° 0' 22",\N,"NFK",\N,"-29.00611111111111","167.91666666666666","https://www.google.com/maps/@-29.00611111111111,167.91666666666666,15z"
"298593","N42","Anson Bay Reserve","Location: 167° 55' 28, -29° 0' 30",\N,"NFK",\N,"-29.008333333333333","167.92444444444445","https://www.google.com/maps/@-29.008333333333333,167.92444444444445,15z"
"298594","N43","Selwyn Recreational Reserve","Location: 167° 55' 22, -29° 0' 50",\N,"NFK",\N,"-29.01388888888889","167.92277777777778","https://www.google.com/maps/@-29.01388888888889,167.92277777777778,15z"
"298595","N44","Anzcan Cable Station","Location: 167° 55' 28, -29° 0' 20",\N,"NFK",\N,"-29.005555555555556","167.92444444444445","https://www.google.com/maps/@-29.005555555555556,167.92444444444445,15z"
"298596","N45","Norfolk Island National Park","Location: 167° 56' 18, -29° 0' 41",\N,"NFK",\N,"-29.011388888888888","167.93833333333333","https://www.google.com/maps/@-29.011388888888888,167.93833333333333,15z"
"298598","N47","Eucalyptus Plantation","Location: 167° 55' 40, -29° 1' 0",\N,"NFK",\N,"-29.016666666666666","167.92777777777778","https://www.google.com/maps/@-29.016666666666666,167.92777777777778,15z"
"298599","N48","Mount Bates","Location: 167° 56' 26, -29° 0' 33",\N,"NFK",\N,"-29.009166666666665","167.94055555555556","https://www.google.com/maps/@-29.009166666666665,167.94055555555556,15z"
"298600","N49","Point Vincent","Location: 167° 55' 14, -28° 59' 38",\N,"NFK",\N,"-28.99388888888889","167.92055555555555","https://www.google.com/maps/@-28.99388888888889,167.92055555555555,15z"
"298601","N50","Point Howe","Location: 167° 55' 35, -28° 59' 36",\N,"NFK",\N,"-28.993333333333336","167.92638888888888","https://www.google.com/maps/@-28.993333333333336,167.92638888888888,15z"
"298603","N52","Captain Cook Monument","Location: 167° 56' 39, -29° 0' 3",\N,"NFK",\N,"-29.000833333333333","167.94416666666666","https://www.google.com/maps/@-29.000833333333333,167.94416666666666,15z"
"298604","N53","Moo-oo Stone","Location: 167° 56' 48, -28° 59' 55",\N,"NFK",\N,"-28.998611111111114","167.94666666666666","https://www.google.com/maps/@-28.998611111111114,167.94666666666666,15z"
"298605","N54","Green Pool Stone","Location: 167° 56' 51, -29° 0' 0",\N,"NFK",\N,"-29.0","167.9475","https://www.google.com/maps/@-29.0,167.9475,15z"
"298606","N55","Cathedral Rock","Location: 167° 56' 57, -29° 0' 4",\N,"NFK",\N,"-29.00111111111111","167.94916666666668","https://www.google.com/maps/@-29.00111111111111,167.94916666666668,15z"
"298607","N56","Bird Rock","Location: 167° 57' 28, -29° 0' 11",\N,"NFK",\N,"-29.003055555555555","167.95777777777778","https://www.google.com/maps/@-29.003055555555555,167.95777777777778,15z"
"298608","N57","Cascade Bay","Location: 167° 58' 11, -29° 0' 59",\N,"NFK",\N,"-29.01638888888889","167.96972222222223","https://www.google.com/maps/@-29.01638888888889,167.96972222222223,15z"
"298609","N58","Water Falls","Location: 167° 58' 5, -29° 1' 3",\N,"NFK",\N,"-29.0175","167.96805555555557","https://www.google.com/maps/@-29.0175,167.96805555555557,15z"
"298610","N59","Cascade Jetty","Location: 167° 58' 32, -29° 1' 12",\N,"NFK",\N,"-29.02","167.97555555555556","https://www.google.com/maps/@-29.02,167.97555555555556,15z"
"298611","N60","Cascade Reserve","Location: 167° 58' 24, -29° 1' 19; incorrectly entered on NatGaz as \"Reserve Cascade\"",\N,"NFK",\N,"-29.021944444444443","167.97333333333333","https://www.google.com/maps/@-29.021944444444443,167.97333333333333,15z"
"298612","N61","Nepean Island","Location: 167° 57' 52, -29° 4' 11",\N,"NFK",\N,"-29.06972222222222","167.96444444444444","https://www.google.com/maps/@-29.06972222222222,167.96444444444444,15z"
"298613","N62","Point Hunter","Location: 167° 57' 50, -29° 3' 38",\N,"NFK",\N,"-29.060555555555556","167.96388888888887","https://www.google.com/maps/@-29.060555555555556,167.96388888888887,15z"
"298614","N63","Kingston","Location: 167° 57' 35, -29° 3' 14",\N,"NFK",\N,"-29.05388888888889","167.9597222222222","https://www.google.com/maps/@-29.05388888888889,167.9597222222222,15z"
"298616","N65","Rocky Point Creek","Location: 167° 56' 32, -29° 3' 18",\N,"NFK",\N,"-29.055","167.94222222222223","https://www.google.com/maps/@-29.055,167.94222222222223,15z"
"298617","N66","Watermill Creek","Location: 167° 57' 11, -29° 2' 46",\N,"NFK",\N,"-29.046111111111113","167.95305555555555","https://www.google.com/maps/@-29.046111111111113,167.95305555555555,15z"
"298618","N67","Town Creek","Location: 167° 57' 41, -29° 3' 3",\N,"NFK",\N,"-29.050833333333333","167.96138888888888","https://www.google.com/maps/@-29.050833333333333,167.96138888888888,15z"
"298619","N68","Stockyard Creek","Location: 167° 58' 45, -29° 1' 27",\N,"NFK",\N,"-29.024166666666666","167.97916666666666","https://www.google.com/maps/@-29.024166666666666,167.97916666666666,15z"
"298620","N69","Cascade Creek","Location: 167° 57' 53, -29° 1' 41",\N,"NFK",\N,"-29.028055555555554","167.9647222222222","https://www.google.com/maps/@-29.028055555555554,167.9647222222222,15z"
"298621","N70","Broken Bridge Creek","Location: 167° 57' 38, -29° 1' 24",\N,"NFK",\N,"-29.023333333333333","167.96055555555554","https://www.google.com/maps/@-29.023333333333333,167.96055555555554,15z"
"298622","N71","Whales Hump","Location: 167° 57' 2, -29° 7' 49",\N,"NFK",\N,"-29.130277777777778","167.95055555555555","https://www.google.com/maps/@-29.130277777777778,167.95055555555555,15z"
"298623","N72","Garnet Point","Location: 167° 57' 7, -29° 7' 46",\N,"NFK",\N,"-29.129444444444445","167.95194444444442","https://www.google.com/maps/@-29.129444444444445,167.95194444444442,15z"
"298624","N73","Spin Bay","Location: 167° 57' 19, -29° 7' 27",\N,"NFK",\N,"-29.124166666666667","167.95527777777778","https://www.google.com/maps/@-29.124166666666667,167.95527777777778,15z"
"298625","N74","Dar Tomato Bay","Location: 167° 56' 51, -29° 7' 26",\N,"NFK",\N,"-29.12388888888889","167.9475","https://www.google.com/maps/@-29.12388888888889,167.9475,15z"
"298626","N75","Dar Moo-oo Bay","Location: 167° 57' 21, -29° 6' 50",\N,"NFK",\N,"-29.11388888888889","167.95583333333332","https://www.google.com/maps/@-29.11388888888889,167.95583333333332,15z"
"298627","N76","Cow Bay","Location: 167° 56' 48, -29° 6' 50",\N,"NFK",\N,"-29.11388888888889","167.94666666666666","https://www.google.com/maps/@-29.11388888888889,167.94666666666666,15z"
"298628","N77","Jacky Jacky Ridge","Location: 167° 57' 2, -29° 7' 35",\N,"NFK",\N,"-29.12638888888889","167.95055555555555","https://www.google.com/maps/@-29.12638888888889,167.95055555555555,15z"
"298629","N78","Juvenile Point","Location: 167° 57' 39, -29° 7' 18",\N,"NFK",\N,"-29.121666666666666","167.9608333333333","https://www.google.com/maps/@-29.121666666666666,167.9608333333333,15z"
"298630","N79","East End Point","Location: 167° 57' 56, -29° 6' 54",\N,"NFK",\N,"-29.115000000000002","167.96555555555554","https://www.google.com/maps/@-29.115000000000002,167.96555555555554,15z"
"298631","N80","West End Point","Location: 167° 56' 36, -29° 6' 55",\N,"NFK",\N,"-29.11527777777778","167.94333333333333","https://www.google.com/maps/@-29.11527777777778,167.94333333333333,15z"
"298632","N81","White Stone Outside Dar Stool","Location: 167° 57' 1, -29° 6' 40",\N,"NFK",\N,"-29.111111111111114","167.95027777777776","https://www.google.com/maps/@-29.111111111111114,167.95027777777776,15z"
"298633","N82","Red Stone","Location: 167° 57' 15, -29° 6' 41",\N,"NFK",\N,"-29.11138888888889","167.95416666666665","https://www.google.com/maps/@-29.11138888888889,167.95416666666665,15z"
"298634","N83","Sail Rock","Location: 167° 57' 28, -29° 6' 49",\N,"NFK",\N,"-29.113611111111112","167.95777777777778","https://www.google.com/maps/@-29.113611111111112,167.95777777777778,15z"
"298635","N84","Dar Stool Inlet","Location: 167° 56' 57, -29° 6' 46",\N,"NFK",\N,"-29.11277777777778","167.94916666666668","https://www.google.com/maps/@-29.11277777777778,167.94916666666668,15z"
"298636","N85","ANPWS Hut","Location: 167° 57' 2, -29° 7' 1",\N,"NFK",\N,"-29.116944444444446","167.95055555555555","https://www.google.com/maps/@-29.116944444444446,167.95055555555555,15z"
"298637","N86","Short East End Valley","Location: 167° 57' 46, -29° 7' 1",\N,"NFK",\N,"-29.116944444444446","167.96277777777777","https://www.google.com/maps/@-29.116944444444446,167.96277777777777,15z"
"298638","N87","Valley On Top Niggers Hoof","Location: 167° 57' 40, -29° 7' 0",\N,"NFK",\N,"-29.116666666666667","167.9611111111111","https://www.google.com/maps/@-29.116666666666667,167.9611111111111,15z"
"298639","N88","Deep Creek","Location: 167° 57' 25, -29° 6' 59",\N,"NFK",\N,"-29.116388888888892","167.95694444444445","https://www.google.com/maps/@-29.116388888888892,167.95694444444445,15z"
"298640","N89","Long Valley","Location: 167° 57' 12, -29° 7' 3",\N,"NFK",\N,"-29.1175","167.95333333333332","https://www.google.com/maps/@-29.1175,167.95333333333332,15z"
"298641","N90","Mauve Gully","Location: 167° 57' 20, -29° 6' 59",\N,"NFK",\N,"-29.116388888888892","167.95555555555555","https://www.google.com/maps/@-29.116388888888892,167.95555555555555,15z"
"298642","N91","Short Moo-oo Valley","Location: 167° 57' 14, -29° 6' 55",\N,"NFK",\N,"-29.11527777777778","167.95388888888888","https://www.google.com/maps/@-29.11527777777778,167.95388888888888,15z"
"298643","N92","First West End Valley","Location: 167° 56' 56, -29° 6' 57",\N,"NFK",\N,"-29.115833333333335","167.9488888888889","https://www.google.com/maps/@-29.115833333333335,167.9488888888889,15z"
"298644","N93","Second West End Valley","Location: 167° 56' 48, -29° 6' 58",\N,"NFK",\N,"-29.116111111111113","167.94666666666666","https://www.google.com/maps/@-29.116111111111113,167.94666666666666,15z"
"298645","N94","Third West End Valley","Location: 167° 56' 45, -29° 6' 57",\N,"NFK",\N,"-29.115833333333335","167.94583333333333","https://www.google.com/maps/@-29.115833333333335,167.94583333333333,15z"
"298646","N95","South Rock","Location: 167° 56' 51, -29° 8' 4",\N,"NFK",\N,"-29.134444444444444","167.9475","https://www.google.com/maps/@-29.134444444444444,167.9475,15z"
"298647","N96","Hard Balli Stone","Location: 167° 57' 6, -29° 6' 31",\N,"NFK",\N,"-29.108611111111113","167.95166666666665","https://www.google.com/maps/@-29.108611111111113,167.95166666666665,15z"
"298648","N97","Phillip Island","Location: 167° 57' 4, -29° 7' 13",\N,"NFK",\N,"-29.12027777777778","167.9511111111111","https://www.google.com/maps/@-29.12027777777778,167.9511111111111,15z"
"298706",\N,"Cascades","A location on the north-east coast of Norfolk Island; probably a variant of Cascade Bay, ANPS ID 298608.",\N,"NFK",\N,"-29.01638888888889","167.96972222222223","https://www.google.com/maps/@-29.01638888888889,167.96972222222223,15z"
"298707",\N,"Sydney","Former name of Kingston, ANPS ID 298614, State N63. Location: 167° 57' 35, -29° 3' 14",\N,"NFK",\N,"-29.05388888888889","167.9597222222222","https://www.google.com/maps/@-29.05388888888889,167.9597222222222,15z"
"298708",\N,"Philip Island","Frequent variant of Phillip Island, ANPS ID 298648",\N,"NFK",\N,"-29.12027777777778","167.9511111111111","https://www.google.com/maps/@-29.12027777777778,167.9511111111111,15z"
"431106","SA0043728","Hayes Range",\N,\N,\N,\N,"-36.0","135.0","https://www.google.com/maps/@-36.0,135.0,15z"
