Wednesday 24 July 2019
10:00 - 14:00 NO BREAK
	
What I did today
	Webapp now has basic search functionality, 
			can search by placename/id
			can download a kml of search results
	
	
Questions:
	
			
What I need to do next time:
	Expand upon program (filters, geoJSON, cut kml into smaller blocks, see jira)
	
Future goals:
	High Res base map of australia?
	Finish Webapp
		
-----------------------------------------------------------------------------------------------------------------------------------------------------------